-------------------------------------------------------------------------------
Test set: it.begear.corsi.corsosdet.uitest.CalculatorTest
-------------------------------------------------------------------------------
Tests run: 7, Failures: 0, Errors: 2, Skipped: 5, Time elapsed: 0.483 sec <<< FAILURE!
Given the form is loaded(Scenario: Form page load)  Time elapsed: 0.004 sec  <<< ERROR!
java.lang.IllegalArgumentException: Both relative and abosulte system properties are not set. Please use -DabsoluteConfPath or -DconfPath .Absolute path take precedence
	at it.begear.corsi.corsosdet.uitest.MultiProperties.<init>(MultiProperties.java:43)
	at it.begear.corsi.corsosdet.uitest.Utility.<init>(Utility.java:60)
	at it.begear.corsi.corsosdet.uitest.Utility.ui(Utility.java:68)
	at it.begear.corsi.corsosdet.uitest.CalculatorStep.the_form_is_loaded(CalculatorStep.java:23)
	at ?.Given the form is loaded(it/begear/corsi/corsosdet/uitest/Calculator.feature:25)

Scenario: Form page load  Time elapsed: 0.005 sec  <<< ERROR!
java.lang.IllegalArgumentException: Both relative and abosulte system properties are not set. Please use -DabsoluteConfPath or -DconfPath .Absolute path take precedence
	at it.begear.corsi.corsosdet.uitest.MultiProperties.<init>(MultiProperties.java:43)
	at it.begear.corsi.corsosdet.uitest.Utility.<init>(Utility.java:60)
	at it.begear.corsi.corsosdet.uitest.Utility.ui(Utility.java:68)
	at it.begear.corsi.corsosdet.uitest.CalculatorStep.the_form_is_loaded(CalculatorStep.java:23)
	at ?.Given the form is loaded(it/begear/corsi/corsosdet/uitest/Calculator.feature:25)

